…
**2. Among the interesting variables in gapminder is life expectancy. How has global life expectancy changed between 1952 and 2007?**

```r
gapminder %>% 
  select(continent, year, life_exp) %>% 
  filter(between(year, 1952, 2007)) %>% 
  arrange(year)
```

```
## # A tibble: 1,704 × 3
##    continent  year life_exp
##    <fct>     <int>    <dbl>
##  1 Asia       1952     28.8
##  2 Europe     1952     55.2
##  3 Africa     1952     43.1
##  4 Africa     1952     30.0
##  5 Americas   1952     62.5
##  6 Oceania    1952     69.1
##  7 Europe     1952     66.8
##  8 Asia       1952     50.9
##  9 Asia       1952     37.5
## 10 Europe     1952     68  
## # ℹ 1,694 more rows
```
…
**4. Your answer above doesn't tell the whole story since life expectancy varies by region. Make a summary that shows the min, mean, and max life expectancy by continent for all years represented in the data.**

```r
gapminder %>% 
  group_by(continent, year) %>% 
  summarise(min_life_exp=min(life_exp),
            mean_life_exp=mean(life_exp),
            max_life_exp=max(life_exp), .groups = "keep") 
```

```
## # A tibble: 60 × 5
## # Groups:   continent, year [60]
##    continent  year min_life_exp mean_life_exp max_life_exp
##    <fct>     <int>        <dbl>         <dbl>        <dbl>
##  1 Africa     1952         30            39.1         52.7
##  2 Africa     1957         31.6          41.3         58.1
##  3 Africa     1962         32.8          43.3         60.2
##  4 Africa     1967         34.1          45.3         61.6
##  5 Africa     1972         35.4          47.5         64.3
##  6 Africa     1977         36.8          49.6         67.1
##  7 Africa     1982         38.4          51.6         69.9
##  8 Africa     1987         39.9          53.3         71.9
##  9 Africa     1992         23.6          53.6         73.6
## 10 Africa     1997         36.1          53.6         74.8
## # ℹ 50 more rows
```
…
**7. Which countries have had the largest population growth since 1952?**

```r
gapminder %>% 
  group_by(country) %>% 
  summarise(min_pop=min(pop),
            max_pop=max(pop)) %>% 
  arrange(-max_pop)
```

```
## # A tibble: 142 × 3
##    country         min_pop    max_pop
##    <fct>             <int>      <int>
##  1 China         556263527 1318683096
##  2 India         372000000 1110396331
##  3 United States 157553000  301139947
##  4 Indonesia      82052000  223547000
##  5 Brazil         56602560  190010647
##  6 Pakistan       41346560  169270617
##  7 Bangladesh     46886859  150448339
##  8 Nigeria        33119096  135031164
##  9 Japan          86459025  127467972
## 10 Mexico         30144317  108700891
## # ℹ 132 more rows
```
…
