…
2. Which cities in California have the highest number of colleges?

```r
colleges %>% 
  group_by(city) %>% 
  summarise(instnm=n_distinct(instnm)) %>% 
  arrange(-instnm) #Los Angeles has the highest number of colleges
```

```
## # A tibble: 161 × 2
##    city          instnm
##    <chr>          <int>
##  1 Los Angeles       24
##  2 San Diego         18
##  3 San Francisco     15
##  4 Sacramento        10
##  5 Berkeley           9
##  6 Oakland            9
##  7 Claremont          7
##  8 Pasadena           6
##  9 Fresno             5
## 10 Irvine             5
## # ℹ 151 more rows
```
…
4. The column `COSTT4_A` is the annual cost of each institution. Which city has the highest average cost? Where is it located?

```r
colleges %>% 
  filter(costt4_a!="NA") %>% 
  group_by(city, instnm) %>%
  summarise(avg_cost=mean(costt4_a), .groups= 'keep') %>% 
  arrange(-avg_cost)
```

```
## # A tibble: 217 × 3
## # Groups:   city, instnm [217]
##    city          instnm                                        avg_cost
##    <chr>         <chr>                                            <dbl>
##  1 Claremont     Harvey Mudd College                              69355
##  2 Los Angeles   Southern California Institute of Architecture    67225
##  3 Los Angeles   University of Southern California                67064
##  4 Los Angeles   Occidental College                               67046
##  5 Claremont     Claremont McKenna College                        66325
##  6 Malibu        Pepperdine University                            66152
##  7 Claremont     Scripps College                                  66060
##  8 Claremont     Pitzer College                                   65880
##  9 San Francisco San Francisco Art Institute                      65453
## 10 Claremont     Pomona College                                   64870
## # ℹ 207 more rows
```
…
