…
Problem 9. (5 points) Among the YNP wolf packs, which one has had the highest overall persistence `persisty1` for the years represented in the data? Look this pack up online and tell me what is unique about its behavior- specifically, what prey animals does this pack specialize on?  

```r
ynp %>% 
  group_by(pack) %>% 
  summarize(sum_persistence=sum(persisty1)) %>% 
  arrange(desc(sum_persistence)) #The pack with the highest overall persistence was Mollie's pack
```

```
## # A tibble: 46 × 2
##    pack        sum_persistence
##    <chr>                 <int>
##  1 mollies                  26
##  2 cougar                   20
##  3 yelldelta                18
##  4 leopold                  12
##  5 agate                    10
##  6 8mile                     9
##  7 canyon                    9
##  8 gibbon/mary               9
##  9 junction                  8
## 10 lamar                     8
## # ℹ 36 more rows
```
…
