…
### dplyr
The first package that we will use that is part of the tidyverse is `dplyr`. `dplyr` is used to transform data frames by extracting, rearranging, and summarizing data such that they are focused on a question of interest. This is very helpful,  especially when wrangling large data, and makes dplyr one of most frequently used packages in the tidyverse. The two functions we will use most are `select()` and `filter()`.  

### select 
**Allows you to pull out columns of interest from a dataframe**

```r
select(fish, "lakeid", "scalelength") #The function is select(name of data frame, then variables of interest). Note: fish is an object
```

```
## # A tibble: 4,033 × 2
##    lakeid scalelength
##    <chr>        <dbl>
##  1 AL            2.70
##  2 AL            2.70
##  3 AL            2.70
##  4 AL            3.02
##  5 AL            3.02
##  6 AL            3.02
##  7 AL            3.02
##  8 AL            3.34
##  9 AL            3.34
## 10 AL            3.34
## # ℹ 4,023 more rows
```

**To add a range of columns use `start_col:end_col`**

```r
select(fish, fish_id:length)
```

```
## # A tibble: 4,033 × 3
##    fish_id annnumber length
##      <dbl> <chr>      <dbl>
##  1     299 EDGE         167
##  2     299 2            167
##  3     299 1            167
##  4     300 EDGE         175
##  5     300 3            175
##  6     300 2            175
##  7     300 1            175
##  8     301 EDGE         194
##  9     301 3            194
## 10     301 2            194
## # ℹ 4,023 more rows
```

**The - operator allows us to select everything except the specified variables**

```r
select(fish, -"fish_id", -"annnumber", -"length", -"radii_length_mm") #Use minus operator (-), remove variables you don't want
```

```
## # A tibble: 4,033 × 2
##    lakeid scalelength
##    <chr>        <dbl>
##  1 AL            2.70
##  2 AL            2.70
##  3 AL            2.70
##  4 AL            3.02
##  5 AL            3.02
##  6 AL            3.02
##  7 AL            3.02
##  8 AL            3.34
##  9 AL            3.34
## 10 AL            3.34
## # ℹ 4,023 more rows
```

Options to select columns based on a specific criteria include:  
1. ends_with() = Select columns that end with a character string  
2. contains() = Select columns that contain a character string  
3. matches() = Select columns that match a regular expression  
4. one_of() = Select columns names that are from a group of names


```r
select(fish, contains("length")) #Look into fish data and pull all variables with something to do with length
```

```
## # A tibble: 4,033 × 3
##    length radii_length_mm scalelength
##     <dbl>           <dbl>       <dbl>
##  1    167            2.70        2.70
##  2    167            2.04        2.70
##  3    167            1.31        2.70
##  4    175            3.02        3.02
##  5    175            2.67        3.02
##  6    175            2.14        3.02
##  7    175            1.23        3.02
##  8    194            3.34        3.34
##  9    194            2.97        3.34
## 10    194            2.29        3.34
## # ℹ 4,023 more rows
```


```r
select(fish, starts_with("radii")) #Pull out all the variables that starts_with or ends_with
```

```
## # A tibble: 4,033 × 1
##    radii_length_mm
##              <dbl>
##  1            2.70
##  2            2.04
##  3            1.31
##  4            3.02
##  5            2.67
##  6            2.14
##  7            1.23
##  8            3.34
##  9            2.97
## 10            2.29
## # ℹ 4,023 more rows
```


```r
select(fish, ends_with("id"))
```

```
## # A tibble: 4,033 × 2
##    lakeid fish_id
##    <chr>    <dbl>
##  1 AL         299
##  2 AL         299
##  3 AL         299
##  4 AL         300
##  5 AL         300
##  6 AL         300
##  7 AL         300
##  8 AL         301
##  9 AL         301
## 10 AL         301
## # ℹ 4,023 more rows
```


```r
select(fish, matches("a.+er")) #Handy bit of code for project; look at variables of interest with "a" and ends with "er"
```

```
## # A tibble: 4,033 × 1
##    annnumber
##    <chr>    
##  1 EDGE     
##  2 2        
##  3 1        
##  4 EDGE     
##  5 3        
##  6 2        
##  7 1        
##  8 EDGE     
##  9 3        
## 10 2        
## # ℹ 4,023 more rows
```


```r
select_if(fish, is.numeric) #pull all numerics
```

```
## # A tibble: 4,033 × 4
##    fish_id length radii_length_mm scalelength
##      <dbl>  <dbl>           <dbl>       <dbl>
##  1     299    167            2.70        2.70
##  2     299    167            2.04        2.70
##  3     299    167            1.31        2.70
##  4     300    175            3.02        3.02
##  5     300    175            2.67        3.02
##  6     300    175            2.14        3.02
##  7     300    175            1.23        3.02
##  8     301    194            3.34        3.34
##  9     301    194            2.97        3.34
## 10     301    194            2.29        3.34
## # ℹ 4,023 more rows
```

```r
select_if(mammals, ~is.character(.)) #pull all characters
```

```
## # A tibble: 1,440 × 4
##    order        family         Genus       species      
##    <chr>        <chr>          <chr>       <chr>        
##  1 Artiodactyla Antilocapridae Antilocapra americana    
##  2 Artiodactyla Bovidae        Addax       nasomaculatus
##  3 Artiodactyla Bovidae        Aepyceros   melampus     
##  4 Artiodactyla Bovidae        Alcelaphus  buselaphus   
##  5 Artiodactyla Bovidae        Ammodorcas  clarkei      
##  6 Artiodactyla Bovidae        Ammotragus  lervia       
##  7 Artiodactyla Bovidae        Antidorcas  marsupialis  
##  8 Artiodactyla Bovidae        Antilope    cervicapra   
##  9 Artiodactyla Bovidae        Bison       bison        
## 10 Artiodactyla Bovidae        Bison       bonasus      
## # ℹ 1,430 more rows
```

```r
select_if(mammals, is.character)
```

```
## # A tibble: 1,440 × 4
##    order        family         Genus       species      
##    <chr>        <chr>          <chr>       <chr>        
##  1 Artiodactyla Antilocapridae Antilocapra americana    
##  2 Artiodactyla Bovidae        Addax       nasomaculatus
##  3 Artiodactyla Bovidae        Aepyceros   melampus     
##  4 Artiodactyla Bovidae        Alcelaphus  buselaphus   
##  5 Artiodactyla Bovidae        Ammodorcas  clarkei      
##  6 Artiodactyla Bovidae        Ammotragus  lervia       
##  7 Artiodactyla Bovidae        Antidorcas  marsupialis  
##  8 Artiodactyla Bovidae        Antilope    cervicapra   
##  9 Artiodactyla Bovidae        Bison       bison        
## 10 Artiodactyla Bovidae        Bison       bonasus      
## # ℹ 1,430 more rows
```

**To select all columns that are *not* a class of data, you need to add a `~`.**

```r
select_if(fish, ~!is.numeric(.)) #Look across (~) into fish data and don't pull out numeric (! = not)
```

```
## # A tibble: 4,033 × 2
##    lakeid annnumber
##    <chr>  <chr>    
##  1 AL     EDGE     
##  2 AL     2        
##  3 AL     1        
##  4 AL     EDGE     
##  5 AL     3        
##  6 AL     2        
##  7 AL     1        
##  8 AL     EDGE     
##  9 AL     3        
## 10 AL     2        
## # ℹ 4,023 more rows
```

### Other
**Imported data frames often have a mix of lower and uppercase column names. Use `toupper()` or `tolower()` to fix this issue**

```r
select_all(mammals, tolower)
```

```
## # A tibble: 1,440 × 13
##    order       family genus species   mass gestation newborn weaning `wean mass`
##    <chr>       <chr>  <chr> <chr>    <dbl>     <dbl>   <dbl>   <dbl>       <dbl>
##  1 Artiodacty… Antil… Anti… americ… 4.54e4      8.13   3246.    3           8900
##  2 Artiodacty… Bovid… Addax nasoma… 1.82e5      9.39   5480     6.5         -999
##  3 Artiodacty… Bovid… Aepy… melamp… 4.15e4      6.35   5093     5.63       15900
##  4 Artiodacty… Bovid… Alce… busela… 1.5 e5      7.9   10167.    6.5         -999
##  5 Artiodacty… Bovid… Ammo… clarkei 2.85e4      6.8    -999  -999           -999
##  6 Artiodacty… Bovid… Ammo… lervia  5.55e4      5.08   3810     4           -999
##  7 Artiodacty… Bovid… Anti… marsup… 3   e4      5.72   3910     4.04        -999
##  8 Artiodacty… Bovid… Anti… cervic… 3.75e4      5.5    3846     2.13        -999
##  9 Artiodacty… Bovid… Bison bison   4.98e5      8.93  20000    10.7       157500
## 10 Artiodacty… Bovid… Bison bonasus 5   e5      9.14  23000.    6.6         -999
## # ℹ 1,430 more rows
## # ℹ 4 more variables: afr <dbl>, `max. life` <dbl>, `litter size` <dbl>,
## #   `litters/year` <dbl>
```


```r
clean_names(mammals) #janitor package
```

```
## # A tibble: 1,440 × 13
##    order  family genus species   mass gestation newborn weaning wean_mass    afr
##    <chr>  <chr>  <chr> <chr>    <dbl>     <dbl>   <dbl>   <dbl>     <dbl>  <dbl>
##  1 Artio… Antil… Anti… americ… 4.54e4      8.13   3246.    3         8900   13.5
##  2 Artio… Bovid… Addax nasoma… 1.82e5      9.39   5480     6.5       -999   27.3
##  3 Artio… Bovid… Aepy… melamp… 4.15e4      6.35   5093     5.63     15900   16.7
##  4 Artio… Bovid… Alce… busela… 1.5 e5      7.9   10167.    6.5       -999   23.0
##  5 Artio… Bovid… Ammo… clarkei 2.85e4      6.8    -999  -999         -999 -999  
##  6 Artio… Bovid… Ammo… lervia  5.55e4      5.08   3810     4         -999   14.9
##  7 Artio… Bovid… Anti… marsup… 3   e4      5.72   3910     4.04      -999   10.2
##  8 Artio… Bovid… Anti… cervic… 3.75e4      5.5    3846     2.13      -999   20.1
##  9 Artio… Bovid… Bison bison   4.98e5      8.93  20000    10.7     157500   29.4
## 10 Artio… Bovid… Bison bonasus 5   e5      9.14  23000.    6.6       -999   30.0
## # ℹ 1,430 more rows
## # ℹ 3 more variables: max_life <dbl>, litter_size <dbl>, litters_year <dbl>
```
…
```r
#select_all(mammals, ~str_replace(., " ", "_"))
```



### filter
**`filter()` allows us to extract data that meet specific criteria within a variable**

```r
filter(fish, lakeid == "AL") #Look in fish data and pull out all observations that correspond with lakeid "AL" Note: needs to be two equal signs (==)
```

```
## # A tibble: 383 × 6
##    lakeid fish_id annnumber length radii_length_mm scalelength
##    <chr>    <dbl> <chr>      <dbl>           <dbl>       <dbl>
##  1 AL         299 EDGE         167            2.70        2.70
##  2 AL         299 2            167            2.04        2.70
##  3 AL         299 1            167            1.31        2.70
##  4 AL         300 EDGE         175            3.02        3.02
##  5 AL         300 3            175            2.67        3.02
##  6 AL         300 2            175            2.14        3.02
##  7 AL         300 1            175            1.23        3.02
##  8 AL         301 EDGE         194            3.34        3.34
##  9 AL         301 3            194            2.97        3.34
## 10 AL         301 2            194            2.29        3.34
## # ℹ 373 more rows
```


```r
filter(fish, length >= 350)
```

```
## # A tibble: 890 × 6
##    lakeid fish_id annnumber length radii_length_mm scalelength
##    <chr>    <dbl> <chr>      <dbl>           <dbl>       <dbl>
##  1 AL         306 EDGE         350            6.94        6.94
##  2 AL         306 10           350            6.46        6.94
##  3 AL         306 9            350            6.16        6.94
##  4 AL         306 8            350            5.88        6.94
##  5 AL         306 7            350            5.42        6.94
##  6 AL         306 6            350            4.90        6.94
##  7 AL         306 5            350            4.46        6.94
##  8 AL         306 4            350            3.75        6.94
##  9 AL         306 3            350            2.93        6.94
## 10 AL         306 2            350            2.14        6.94
## # ℹ 880 more rows
```
…
**You can also extract observations "near" a certain value but you need to specify a tolerance**

```r
filter(fish, near(radii_length_mm, 2, tol = 0.2)) #Pull data near a certain value, near 2 within 0.2 tolerance 
```

```
## # A tibble: 291 × 6
##    lakeid fish_id annnumber length radii_length_mm scalelength
##    <chr>    <dbl> <chr>      <dbl>           <dbl>       <dbl>
##  1 AL         299 2            167            2.04        2.70
##  2 AL         300 2            175            2.14        3.02
##  3 AL         302 2            324            2.19        6.07
##  4 AL         303 2            325            2.04        6.79
##  5 AL         306 2            350            2.14        6.94
##  6 AL         308 2            355            1.86        6.67
##  7 AL         312 2            367            2.17        6.81
##  8 AL         313 2            367            2.06        6.47
##  9 AL         315 2            372            2.04        6.47
## 10 AL         316 2            372            1.82        6.35
## # ℹ 281 more rows
```

**Use `filter()` to extract data based on multiple conditions. Below we extract only the fish that have lakeid "AL" and length >350**

```r
filter(fish, lakeid == "AL" & length > 350) #"And" filter = exclusive
```

```
## # A tibble: 314 × 6
##    lakeid fish_id annnumber length radii_length_mm scalelength
##    <chr>    <dbl> <chr>      <dbl>           <dbl>       <dbl>
##  1 AL         307 EDGE         353            7.55        7.55
##  2 AL         307 13           353            7.28        7.55
##  3 AL         307 12           353            6.98        7.55
##  4 AL         307 11           353            6.73        7.55
##  5 AL         307 10           353            6.48        7.55
##  6 AL         307 9            353            6.22        7.55
##  7 AL         307 8            353            5.92        7.55
##  8 AL         307 7            353            5.44        7.55
##  9 AL         307 6            353            5.06        7.55
## 10 AL         307 5            353            4.37        7.55
## # ℹ 304 more rows
```

**Notice that the `|` operator generates a different result**

```r
filter(fish, lakeid == "AL" | length > 350) #Stands for "or" = inclusive
```

```
## # A tibble: 948 × 6
##    lakeid fish_id annnumber length radii_length_mm scalelength
##    <chr>    <dbl> <chr>      <dbl>           <dbl>       <dbl>
##  1 AL         299 EDGE         167            2.70        2.70
##  2 AL         299 2            167            2.04        2.70
##  3 AL         299 1            167            1.31        2.70
##  4 AL         300 EDGE         175            3.02        3.02
##  5 AL         300 3            175            2.67        3.02
##  6 AL         300 2            175            2.14        3.02
##  7 AL         300 1            175            1.23        3.02
##  8 AL         301 EDGE         194            3.34        3.34
##  9 AL         301 3            194            2.97        3.34
## 10 AL         301 2            194            2.29        3.34
## # ℹ 938 more rows
```

**In this case, we filter out the fish with a length over 400 and a scale length over 11 or a radii length over 8**

```r
filter(fish, length > 400, (scalelength > 11 | radii_length_mm > 8))
```

```
## # A tibble: 23 × 6
##    lakeid fish_id annnumber length radii_length_mm scalelength
##    <chr>    <dbl> <chr>      <dbl>           <dbl>       <dbl>
##  1 AL         324 EDGE         406            8.21        8.21
##  2 AL         327 EDGE         413            8.33        8.33
##  3 AL         327 15           413            8.11        8.33
##  4 AL         328 EDGE         420            8.71        8.71
##  5 AL         328 16           420            8.41        8.71
##  6 AL         328 15           420            8.14        8.71
##  7 WS         180 EDGE         403           11.0        11.0 
##  8 WS         180 16           403           10.6        11.0 
##  9 WS         180 15           403           10.3        11.0 
## 10 WS         180 14           403            9.93       11.0 
## # ℹ 13 more rows
```
…
### Pipes `%>%` 
**Start combining `select()`, `filter()`, and other functions. Pipes feed the output from one function into the input of another function. This helps us keep our code sequential and clean (Shift + command + m)**

```r
fish %>% #Work with the fish data 
  select(lakeid, radii_length_mm) %>% #Pull out variables of interest
  filter(lakeid=="AL" | lakeid=="AR") %>% #Only these lakes
  filter(between(radii_length_mm, 2, 4)) %>% #Between 2 and 4
  arrange(desc(radii_length_mm)) #Sort to make easier to read
```

```
## # A tibble: 253 × 2
##    lakeid radii_length_mm
##    <chr>            <dbl>
##  1 AR                4.00
##  2 AR                3.99
##  3 AR                3.99
##  4 AR                3.98
##  5 AR                3.98
##  6 AR                3.96
##  7 AR                3.94
##  8 AR                3.94
##  9 AR                3.94
## 10 AL                3.94
## # ℹ 243 more rows
```

**The `arrange()` command is default is ascending order**

```r
fish %>% 
  select(lakeid, scalelength) %>% 
  arrange(scalelength)
```

```
## # A tibble: 4,033 × 2
##    lakeid scalelength
##    <chr>        <dbl>
##  1 WS           0.628
##  2 WS           0.637
##  3 LSG          0.773
##  4 WS           0.832
##  5 LSG          1.15 
##  6 WS           1.41 
##  7 WS           1.41 
##  8 WS           1.41 
##  9 BO           1.43 
## 10 BO           1.43 
## # ℹ 4,023 more rows
```

**To sort in decreasing order, wrap the variable name in `desc()`**

```r
fish %>% 
  select(lakeid, scalelength) %>% 
  arrange(desc(scalelength))
```

```
## # A tibble: 4,033 × 2
##    lakeid scalelength
##    <chr>        <dbl>
##  1 WS            11.0
##  2 WS            11.0
##  3 WS            11.0
##  4 WS            11.0
##  5 WS            11.0
##  6 WS            11.0
##  7 WS            11.0
##  8 WS            11.0
##  9 WS            11.0
## 10 WS            11.0
## # ℹ 4,023 more rows
```


### mutate 
**Allows us to create a new column from existing columns in a data frame  

```r
fish %>% 
  mutate(length_mm = length*10) %>% 
  select(fish_id, length, length_mm)
```

```
## # A tibble: 4,033 × 3
##    fish_id length length_mm
##      <dbl>  <dbl>     <dbl>
##  1     299    167      1670
##  2     299    167      1670
##  3     299    167      1670
##  4     300    175      1750
##  5     300    175      1750
##  6     300    175      1750
##  7     300    175      1750
##  8     301    194      1940
##  9     301    194      1940
## 10     301    194      1940
## # ℹ 4,023 more rows
```

**`mutate_all()` is super helpful when cleaning data.** 

```r
mammals %>%
  mutate_all(tolower)
```

```
## # A tibble: 1,440 × 13
##    order    family genus species mass  gestation newborn weaning wean_mass AFR  
##    <chr>    <chr>  <chr> <chr>   <chr> <chr>     <chr>   <chr>   <chr>     <chr>
##  1 artioda… antil… anti… americ… 45375 8.13      3246.36 3       8900      13.53
##  2 artioda… bovid… addax nasoma… 1823… 9.39      5480    6.5     -999      27.27
##  3 artioda… bovid… aepy… melamp… 41480 6.35      5093    5.63    15900     16.66
##  4 artioda… bovid… alce… busela… 1500… 7.9       10166.… 6.5     -999      23.02
##  5 artioda… bovid… ammo… clarkei 28500 6.8       -999    -999    -999      -999 
##  6 artioda… bovid… ammo… lervia  55500 5.08      3810    4       -999      14.89
##  7 artioda… bovid… anti… marsup… 30000 5.72      3910    4.04    -999      10.23
##  8 artioda… bovid… anti… cervic… 37500 5.5       3846    2.13    -999      20.13
##  9 artioda… bovid… bison bison   4976… 8.93      20000   10.71   157500    29.45
## 10 artioda… bovid… bison bonasus 5e+05 9.14      23000.… 6.6     -999      29.99
## # ℹ 1,430 more rows
## # ℹ 3 more variables: max_life <chr>, litter_size <chr>, litters_per_year <chr>
```
…
