…
Sort out the movies from the netflix into an new object called netflix_movies

```r
netflix_movies <- netflix %>% filter(type == "Movie")
```

Which director has the most movies on netflix?

```r
count(netflix_movies, director, sort = TRUE)
```

```
## # A tibble: 4,355 × 2
##    director                   n
##    <chr>                  <int>
##  1 <NA>                     188
##  2 Rajiv Chilaka             19
##  3 Raúl Campos, Jan Suter    18
##  4 Suhas Kadav               16
##  5 Marcus Raboy              15
##  6 Jay Karas                 14
##  7 Cathy Garcia-Molina       13
##  8 Jay Chapman               12
##  9 Martin Scorsese           12
## 10 Youssef Chahine           12
## # ℹ 4,345 more rows
```

*Do you see anything wrong with the table above, look at row 1. Write a prompt below to fix this.*

Which director have the most movies on netflix? remove NA's

```r
count(netflix_movies, director, sort = TRUE) %>% filter(!is.na(director))
```

```
## # A tibble: 4,354 × 2
##    director                   n
##    <chr>                  <int>
##  1 Rajiv Chilaka             19
##  2 Raúl Campos, Jan Suter    18
##  3 Suhas Kadav               16
##  4 Marcus Raboy              15
##  5 Jay Karas                 14
##  6 Cathy Garcia-Molina       13
##  7 Jay Chapman               12
##  8 Martin Scorsese           12
##  9 Youssef Chahine           12
## 10 Steven Spielberg          11
## # ℹ 4,344 more rows
```

Which director had the most movies by release year and remove the NA's?

```r
count(netflix_movies, director, sort = TRUE) %>% filter(!is.na(director)) %>% group_by(director) %>% top_n(1, wt = n)
```

```
## # A tibble: 4,354 × 2
## # Groups:   director [4,354]
##    director                   n
##    <chr>                  <int>
##  1 Rajiv Chilaka             19
##  2 Raúl Campos, Jan Suter    18
##  3 Suhas Kadav               16
##  4 Marcus Raboy              15
##  5 Jay Karas                 14
##  6 Cathy Garcia-Molina       13
##  7 Jay Chapman               12
##  8 Martin Scorsese           12
##  9 Youssef Chahine           12
## 10 Steven Spielberg          11
## # ℹ 4,344 more rows
```

*See anything else interesting about this table, look at the first director on the table. Could this be a problem and how can we edit the dataset to fix this? Try writing a prompt.*

Separate each director into their own row and count the number of movies they have on netflix and remove NAs

```r
netflix_movies %>% separate_rows(director, sep = ",") %>% count(director, sort = TRUE) %>% filter(!is.na(director))
```

```
## # A tibble: 4,886 × 2
##    director                  n
##    <chr>                 <int>
##  1 "Rajiv Chilaka"          22
##  2 " Jan Suter"             18
##  3 "Raúl Campos"            18
##  4 "Suhas Kadav"            16
##  5 "Jay Karas"              15
##  6 "Marcus Raboy"           15
##  7 "Cathy Garcia-Molina"    13
##  8 "Jay Chapman"            12
##  9 "Martin Scorsese"        12
## 10 "Youssef Chahine"        12
## # ℹ 4,876 more rows
```
…
