…
```r
options(scipen=999) #cancels the use of scientific notation for the session
```

## LAB 8

**summarize() and group_by() are powerful tools that we can use to produce clean summaries of data. Especially when used together, we can quickly group variables of interest and save time**

```r
print(penguins)
```

```
## # A tibble: 344 × 8
##    species island    bill_length_mm bill_depth_mm flipper_length_mm body_mass_g
##    <fct>   <fct>              <dbl>         <dbl>             <int>       <int>
##  1 Adelie  Torgersen           39.1          18.7               181        3750
##  2 Adelie  Torgersen           39.5          17.4               186        3800
##  3 Adelie  Torgersen           40.3          18                 195        3250
##  4 Adelie  Torgersen           NA            NA                  NA          NA
##  5 Adelie  Torgersen           36.7          19.3               193        3450
##  6 Adelie  Torgersen           39.3          20.6               190        3650
##  7 Adelie  Torgersen           38.9          17.8               181        3625
##  8 Adelie  Torgersen           39.2          19.6               195        4675
##  9 Adelie  Torgersen           34.1          18.1               193        3475
## 10 Adelie  Torgersen           42            20.2               190        4250
## # ℹ 334 more rows
## # ℹ 2 more variables: sex <fct>, year <int>
```
…
```r
heartrate %>% 
  pivot_longer(-patient, #patient will not move
               names_to = "drug", #make a new column called "drug"
               values_to="heartrate" #values moved to a new column called "heartrate"
               )
```

```
## # A tibble: 24 × 3
##    patient  drug  heartrate
##    <chr>    <chr>     <dbl>
##  1 Margaret a            72
##  2 Margaret b            74
##  3 Margaret c            80
##  4 Margaret d            68
##  5 Frank    a            84
##  6 Frank    b            84
##  7 Frank    c            88
##  8 Frank    d            76
##  9 Hawkeye  a            64
## 10 Hawkeye  b            66
## # ℹ 14 more rows
```
…
Use `pivot_longer()` to make the data tidy.  

```r
relig_income %>% 
  pivot_longer(-religion,
               names_to = "income",
               values_to = "total")
```

```
## # A tibble: 180 × 3
##    religion income             total
##    <chr>    <chr>              <dbl>
##  1 Agnostic <$10k                 27
##  2 Agnostic $10-20k               34
##  3 Agnostic $20-30k               60
##  4 Agnostic $30-40k               81
##  5 Agnostic $40-50k               76
##  6 Agnostic $50-75k              137
##  7 Agnostic $75-100k             122
##  8 Agnostic $100-150k            109
##  9 Agnostic >150k                 84
## 10 Agnostic Don't know/refused    96
## # ℹ 170 more rows
```
…
Solution 3: identify columns by a prefix, remove the prefix and all NA's.

```r
billboard %>% 
   pivot_longer(
   cols = starts_with("wk"), #columns that start with "wk"
   names_to = "week",
   names_prefix = "wk",
   values_to = "rank",
   values_drop_na = TRUE)
```

```
## # A tibble: 5,307 × 5
##    artist  track                   date.entered week   rank
##    <chr>   <chr>                   <date>       <chr> <dbl>
##  1 2 Pac   Baby Don't Cry (Keep... 2000-02-26   1        87
##  2 2 Pac   Baby Don't Cry (Keep... 2000-02-26   2        82
##  3 2 Pac   Baby Don't Cry (Keep... 2000-02-26   3        72
##  4 2 Pac   Baby Don't Cry (Keep... 2000-02-26   4        77
##  5 2 Pac   Baby Don't Cry (Keep... 2000-02-26   5        87
##  6 2 Pac   Baby Don't Cry (Keep... 2000-02-26   6        94
##  7 2 Pac   Baby Don't Cry (Keep... 2000-02-26   7        99
##  8 2Ge+her The Hardest Part Of ... 2000-09-02   1        91
##  9 2Ge+her The Hardest Part Of ... 2000-09-02   2        87
## 10 2Ge+her The Hardest Part Of ... 2000-09-02   3        92
## # ℹ 5,297 more rows
```
…
Use `pivot_longer()` to make the data tidy. Focus the data only on genotype, water_sched_prog, and greenhouse.  

```r
plant_data %>% 
  pivot_longer(-c(genotype, water_sched_prog, greenhouse),
               names_to = "day",
               values_to = "v2",
               values_drop_na = TRUE)
```

```
## # A tibble: 90 × 5
##    genotype water_sched_prog greenhouse day      v2
##    <chr>    <chr>            <chr>      <chr> <dbl>
##  1 control  A                A761       day1   21.7
##  2 control  A                A761       day2   19.9
##  3 control  A                A761       day3   20.7
##  4 control  A                A761       day4   19.4
##  5 control  A                A761       day5   20.2
##  6 control  A                A761       day6   19.2
##  7 control  A                A761       day7   20.6
##  8 control  A                A761       day8   19.9
##  9 control  A                A761       day9   19.2
## 10 control  A                A761       day10  20.4
## # ℹ 80 more rows
```
…
Are these data tidy? Please use `pivot_longer()` to tidy the data.

```r
expenditures %>% 
  pivot_longer(-expenditure, #not moving expenditure 
               names_to = "year", #make new variable = year
               values_to = "bn_dollars") #moving values into bn_dollars
```

```
## # A tibble: 25 × 3
##    expenditure         year  bn_dollars
##    <chr>               <chr>      <dbl>
##  1 Food and Tobacco    1940        22.2
##  2 Food and Tobacco    1945        44.5
##  3 Food and Tobacco    1950        59.6
##  4 Food and Tobacco    1955        73.2
##  5 Food and Tobacco    1960        86.8
##  6 Household Operation 1940        10.5
##  7 Household Operation 1945        15.5
##  8 Household Operation 1950        29  
##  9 Household Operation 1955        36.5
## 10 Household Operation 1960        46.2
## # ℹ 15 more rows
```
…
```r
qpcr_untidy %>% 
  pivot_longer(
    exp1_rep1:exp3_rep3, #range
    names_to= c("experiment", "replicate"), #names of columns
    names_sep="_", #separate by _
    values_to="mRNA_expression")
```

```
## # A tibble: 45 × 4
##    gene  experiment replicate mRNA_expression
##    <chr> <chr>      <chr>               <dbl>
##  1 A     exp1       rep1                 21.7
##  2 A     exp1       rep2                 19.8
##  3 A     exp1       rep3                 20.7
##  4 A     exp2       rep1                 18.3
##  5 A     exp2       rep2                 20.4
##  6 A     exp2       rep3                 17.6
##  7 A     exp3       rep1                 20.6
##  8 A     exp3       rep2                 19.9
##  9 A     exp3       rep3                 19.2
## 10 B     exp1       rep1                 24.3
## # ℹ 35 more rows
```
…
**Examples**
Re-examine `heartrate2`. Use `separate()` for the sexes, `pivot_longer()` to tidy, and `arrange()` to organize by patient and drug. Store this as a new object `heartrate3`.  

```r
heartrate3 <- heartrate2 %>% 
  separate(patient, into=c("patient", "sex"), sep="_") %>% 
  pivot_longer(-c(patient, sex),
               names_to = "drug",
               values_to = "heartrate")
heartrate3
```

```
## # A tibble: 24 × 4
##    patient  sex   drug  heartrate
##    <chr>    <chr> <chr>     <dbl>
##  1 Margaret f     a            72
##  2 Margaret f     b            74
##  3 Margaret f     c            80
##  4 Margaret f     d            68
##  5 Frank    m     a            84
##  6 Frank    m     b            84
##  7 Frank    m     c            88
##  8 Frank    m     d            76
##  9 Hawkeye  m     a            64
## 10 Hawkeye  m     b            66
## # ℹ 14 more rows
```

### unite
**Opposite of separate(). Its syntax is straightforward. You only need to give a new column name and then list the columns to combine with a separation character.  Give it a try below by recombining patient and sex from `heartrate3`.**

```r
heartrate3 %>% 
  unite(patient_sex, "patient", "sex", sep=" ") #does the opposite, takes two variables and combines
```

```
## # A tibble: 24 × 3
##    patient_sex drug  heartrate
##    <chr>       <chr>     <dbl>
##  1 Margaret f  a            72
##  2 Margaret f  b            74
##  3 Margaret f  c            80
##  4 Margaret f  d            68
##  5 Frank m     a            84
##  6 Frank m     b            84
##  7 Frank m     c            88
##  8 Frank m     d            76
##  9 Hawkeye m   a            64
## 10 Hawkeye m   b            66
## # ℹ 14 more rows
```
…
Now, use `pivot_longer` to transform them back to long!

```r
beachbugs_wide %>% 
  pivot_longer(-year,
               names_to = "site",
               values_to = "buglevels") %>% 
  arrange(desc(buglevels))
```

```
## # A tibble: 66 × 3
##     year site                    buglevels
##    <dbl> <chr>                       <dbl>
##  1  2013 Little Bay Beach            122. 
##  2  2018 South Maroubra Rockpool     112. 
##  3  2013 Malabar Beach               101. 
##  4  2013 South Maroubra Rockpool      96.4
##  5  2016 Malabar Beach                91.0
##  6  2015 Malabar Beach                66.9
##  7  2016 Bronte Beach                 61.3
##  8  2016 Coogee Beach                 59.5
##  9  2016 South Maroubra Rockpool      59.3
## 10  2018 Little Bay Beach             59.1
## # ℹ 56 more rows
```
…
**Examples**
Filter the `homerange` data to include `mammals` only.

```r
homerange %>% 
  filter(class=="mammalia")
```

```
## # A tibble: 238 × 24
##    taxon   common.name      class order family genus species primarymethod N    
##    <chr>   <chr>            <chr> <chr> <chr>  <chr> <chr>   <chr>         <chr>
##  1 mammals giant golden mo… mamm… afro… chrys… chry… trevel… telemetry*    <NA> 
##  2 mammals Grant's golden … mamm… afro… chrys… erem… granti  telemetry*    <NA> 
##  3 mammals pronghorn        mamm… arti… antil… anti… americ… telemetry*    <NA> 
##  4 mammals impala           mamm… arti… bovid… aepy… melamp… telemetry*    <NA> 
##  5 mammals hartebeest       mamm… arti… bovid… alce… busela… telemetry*    <NA> 
##  6 mammals barbary sheep    mamm… arti… bovid… ammo… lervia  telemetry*    <NA> 
##  7 mammals American bison   mamm… arti… bovid… bison bison   telemetry*    <NA> 
##  8 mammals European bison   mamm… arti… bovid… bison bonasus telemetry*    <NA> 
##  9 mammals goat             mamm… arti… bovid… capra hircus  telemetry*    <NA> 
## 10 mammals Spanish ibex     mamm… arti… bovid… capra pyrena… telemetry*    <NA> 
## # ℹ 228 more rows
## # ℹ 15 more variables: mean.mass.g <dbl>, log10.mass <dbl>,
## #   alternative.mass.reference <chr>, mean.hra.m2 <dbl>, log10.hra <dbl>,
## #   hra.reference <chr>, realm <chr>, thermoregulation <chr>, locomotion <chr>,
## #   trophic.guild <chr>, dimension <dbl>, preymass <dbl>, log10.preymass <dbl>,
## #   PPMR <dbl>, prey.size.reference <chr>
```
…
**Examples**

```r
penguins
```

```
## # A tibble: 344 × 8
##    species island    bill_length_mm bill_depth_mm flipper_length_mm body_mass_g
##    <fct>   <fct>              <dbl>         <dbl>             <int>       <int>
##  1 Adelie  Torgersen           39.1          18.7               181        3750
##  2 Adelie  Torgersen           39.5          17.4               186        3800
##  3 Adelie  Torgersen           40.3          18                 195        3250
##  4 Adelie  Torgersen           NA            NA                  NA          NA
##  5 Adelie  Torgersen           36.7          19.3               193        3450
##  6 Adelie  Torgersen           39.3          20.6               190        3650
##  7 Adelie  Torgersen           38.9          17.8               181        3625
##  8 Adelie  Torgersen           39.2          19.6               195        4675
##  9 Adelie  Torgersen           34.1          18.1               193        3475
## 10 Adelie  Torgersen           42            20.2               190        4250
## # ℹ 334 more rows
## # ℹ 2 more variables: sex <fct>, year <int>
```
…
```r
penguins
```

```
## # A tibble: 344 × 8
##    species island    bill_length_mm bill_depth_mm flipper_length_mm body_mass_g
##    <fct>   <fct>              <dbl>         <dbl>             <int>       <int>
##  1 Adelie  Torgersen           39.1          18.7               181        3750
##  2 Adelie  Torgersen           39.5          17.4               186        3800
##  3 Adelie  Torgersen           40.3          18                 195        3250
##  4 Adelie  Torgersen           NA            NA                  NA          NA
##  5 Adelie  Torgersen           36.7          19.3               193        3450
##  6 Adelie  Torgersen           39.3          20.6               190        3650
##  7 Adelie  Torgersen           38.9          17.8               181        3625
##  8 Adelie  Torgersen           39.2          19.6               195        4675
##  9 Adelie  Torgersen           34.1          18.1               193        3475
## 10 Adelie  Torgersen           42            20.2               190        4250
## # ℹ 334 more rows
## # ℹ 2 more variables: sex <fct>, year <int>
```
…
Let's start by making a clear x and y so we know what we are going to plot.

```r
deserts %>% 
  filter(species_id=="DM" | species_id=="DS") %>% 
  mutate(year=as.factor(year)) %>% #change to factor because this represents data points
  group_by(year, species_id) %>% 
  summarise(n=n(), .groups = "keep") %>% 
  pivot_wider(names_from = species_id, values_from = n)
```

```
## # A tibble: 26 × 3
## # Groups:   year [26]
##    year     DM    DS
##    <fct> <int> <int>
##  1 1977    264    98
##  2 1978    389   320
##  3 1979    209   204
##  4 1980    493   346
##  5 1981    559   354
##  6 1982    609   354
##  7 1983    528   280
##  8 1984    396    76
##  9 1985    667    98
## 10 1986    406    88
## # ℹ 16 more rows
```
…
```r
homerange %>% #ON MIDTERM 2
  mutate(mass_category=case_when(log10.mass<=1.75 ~ "small",
                                 log10.mass>1.75 & log10.mass<=2.75 ~ "medium",
                                 log10.mass>2.75 ~ "large")) %>% 
  select(mass_category)
```

```
## # A tibble: 569 × 1
##    mass_category
##    <chr>        
##  1 large        
##  2 medium       
##  3 small        
##  4 small        
##  5 small        
##  6 large        
##  7 large        
##  8 medium       
##  9 medium       
## 10 large        
## # ℹ 559 more rows
```
…
```r
homerange %>% 
  mutate(range_category=case_when(log10.hra<3.65 ~"very small",
                                  log10.hra>=3.65 & log10.hra<=4.59 ~ "small",
                                  log10.hra>4.59 & log10.hra<=6.02 ~ "medium",
                                  log10.hra>=6.02 ~ "large"))
```

```
## # A tibble: 569 × 25
##    taxon        common.name class order family genus species primarymethod N    
##    <chr>        <chr>       <chr> <chr> <chr>  <chr> <chr>   <chr>         <chr>
##  1 lake fishes  american e… acti… angu… angui… angu… rostra… telemetry     16   
##  2 river fishes blacktail … acti… cypr… catos… moxo… poecil… mark-recaptu… <NA> 
##  3 river fishes central st… acti… cypr… cypri… camp… anomal… mark-recaptu… 20   
##  4 river fishes rosyside d… acti… cypr… cypri… clin… fundul… mark-recaptu… 26   
##  5 river fishes longnose d… acti… cypr… cypri… rhin… catara… mark-recaptu… 17   
##  6 river fishes muskellunge acti… esoc… esoci… esox  masqui… telemetry     5    
##  7 marine fish… pollack     acti… gadi… gadid… poll… pollac… telemetry     2    
##  8 marine fish… saithe      acti… gadi… gadid… poll… virens  telemetry     2    
##  9 marine fish… lined surg… acti… perc… acant… acan… lineat… direct obser… <NA> 
## 10 marine fish… orangespin… acti… perc… acant… naso  litura… telemetry     8    
## # ℹ 559 more rows
## # ℹ 16 more variables: mean.mass.g <dbl>, log10.mass <dbl>,
## #   alternative.mass.reference <chr>, mean.hra.m2 <dbl>, log10.hra <dbl>,
## #   hra.reference <chr>, realm <chr>, thermoregulation <chr>, locomotion <chr>,
## #   trophic.guild <chr>, dimension <dbl>, preymass <dbl>, log10.preymass <dbl>,
## #   PPMR <dbl>, prey.size.reference <chr>, range_category <chr>
```
…
### Manually Setting Colors
You can also use `paleteer` to build a custom palette for consistency. To access the `paleteer` collection, I add it to a new object.

```r
colors <- paletteer::palettes_d_names
```


```r
colors
```

```
## # A tibble: 2,415 × 5
##    package   palette   length type        novelty
##    <chr>     <chr>      <int> <chr>       <lgl>  
##  1 awtools   a_palette      8 sequential  TRUE   
##  2 awtools   ppalette       8 qualitative TRUE   
##  3 awtools   bpalette      16 qualitative TRUE   
##  4 awtools   gpalette       4 sequential  TRUE   
##  5 awtools   mpalette       9 qualitative TRUE   
##  6 awtools   spalette       6 qualitative TRUE   
##  7 basetheme brutal        10 qualitative TRUE   
##  8 basetheme clean         10 qualitative TRUE   
##  9 basetheme dark          10 qualitative TRUE   
## 10 basetheme deepblue      10 qualitative TRUE   
## # ℹ 2,405 more rows
```
…
