…
2. Notice that we have some neutral superheros! Who are they? List their names below.  

```r
superhero_info %>% 
  filter(alignment=="neutral")
```

```
## # A tibble: 24 × 10
##    name  gender eye_color race  hair_color height publisher skin_color alignment
##    <chr> <chr>  <chr>     <chr> <chr>       <dbl> <chr>     <chr>      <chr>    
##  1 Biza… Male   black     Biza… Black         191 DC Comics white      neutral  
##  2 Blac… Male   <NA>      God … <NA>           NA DC Comics <NA>       neutral  
##  3 Capt… Male   brown     Human Brown          NA DC Comics <NA>       neutral  
##  4 Copy… Female red       Muta… White         183 Marvel C… blue       neutral  
##  5 Dead… Male   brown     Muta… No Hair       188 Marvel C… <NA>       neutral  
##  6 Deat… Male   blue      Human White         193 DC Comics <NA>       neutral  
##  7 Etri… Male   red       Demon No Hair       193 DC Comics yellow     neutral  
##  8 Gala… Male   black     Cosm… Black         876 Marvel C… <NA>       neutral  
##  9 Glad… Male   blue      Stro… Blue          198 Marvel C… purple     neutral  
## 10 Indi… Female <NA>      Alien Purple         NA DC Comics <NA>       neutral  
## # ℹ 14 more rows
## # ℹ 1 more variable: weight <dbl>
```

## `superhero_info`
3. Let's say we are only interested in the variables name, alignment, and "race". How would you isolate these variables from `superhero_info`?

```r
superhero_info %>% 
  select(name, alignment, race)
```

```
## # A tibble: 734 × 3
##    name          alignment race             
##    <chr>         <chr>     <chr>            
##  1 A-Bomb        good      Human            
##  2 Abe Sapien    good      Icthyo Sapien    
##  3 Abin Sur      good      Ungaran          
##  4 Abomination   bad       Human / Radiation
##  5 Abraxas       bad       Cosmic Entity    
##  6 Absorbing Man bad       Human            
##  7 Adam Monroe   good      <NA>             
##  8 Adam Strange  good      Human            
##  9 Agent 13      good      <NA>             
## 10 Agent Bob     good      Human            
## # ℹ 724 more rows
```


## Not Human
4. List all of the superheros that are not human.

```r
superhero_info %>% 
  filter(race != "Human")
```

```
## # A tibble: 222 × 10
##    name  gender eye_color race  hair_color height publisher skin_color alignment
##    <chr> <chr>  <chr>     <chr> <chr>       <dbl> <chr>     <chr>      <chr>    
##  1 Abe … Male   blue      Icth… No Hair       191 Dark Hor… blue       good     
##  2 Abin… Male   blue      Unga… No Hair       185 DC Comics red        good     
##  3 Abom… Male   green     Huma… No Hair       203 Marvel C… <NA>       bad      
##  4 Abra… Male   blue      Cosm… Black          NA Marvel C… <NA>       bad      
##  5 Ajax  Male   brown     Cybo… Black         193 Marvel C… <NA>       bad      
##  6 Alien Male   <NA>      Xeno… No Hair       244 Dark Hor… black      bad      
##  7 Amazo Male   red       Andr… <NA>          257 DC Comics <NA>       bad      
##  8 Angel Male   <NA>      Vamp… <NA>           NA Dark Hor… <NA>       good     
##  9 Ange… Female yellow    Muta… Black         165 Marvel C… <NA>       good     
## 10 Anti… Male   yellow    God … No Hair        61 DC Comics <NA>       bad      
## # ℹ 212 more rows
## # ℹ 1 more variable: weight <dbl>
```
…
10. Let's explore who the really small superheros are. In the `superhero_info` data, which have a weight less than 50? Be sure to sort your results by weight lowest to highest.  

```r
superhero_info %>% 
  filter(weight<=50) %>% 
  arrange(weight)
```

```
## # A tibble: 31 × 10
##    name  gender eye_color race  hair_color height publisher skin_color alignment
##    <chr> <chr>  <chr>     <chr> <chr>       <dbl> <chr>     <chr>      <chr>    
##  1 Iron… Male   blue      <NA>  No Hair        NA Marvel C… <NA>       bad      
##  2 Groot Male   yellow    Flor… <NA>          701 Marvel C… <NA>       good     
##  3 Jack… Male   blue      Human Brown          71 Dark Hor… <NA>       good     
##  4 Gala… Male   black     Cosm… Black         876 Marvel C… <NA>       neutral  
##  5 Yoda  Male   brown     Yoda… White          66 George L… green      good     
##  6 Fin … Male   red       Kaka… No Hair       975 Marvel C… green      good     
##  7 Howa… Male   brown     <NA>  Yellow         79 Marvel C… <NA>       good     
##  8 Kryp… Male   blue      Kryp… White          64 DC Comics <NA>       good     
##  9 Rock… Male   brown     Anim… Brown         122 Marvel C… <NA>       good     
## 10 Dash  Male   blue      Human Blond         122 Dark Hor… <NA>       good     
## # ℹ 21 more rows
## # ℹ 1 more variable: weight <dbl>
```
…
```r
height_weight_ratio <- superhero_info %>% 
  select(name, height, weight)
```

12. Who has the highest height to weight ratio?  

```r
height_weight_ratio %>% 
  mutate(ratio = height/weight) %>% 
  arrange(desc(ratio)) #The superhero with the highest height to weight ratio is Groot
```

```
## # A tibble: 734 × 4
##    name            height weight  ratio
##    <chr>            <dbl>  <dbl>  <dbl>
##  1 Groot              701      4 175.  
##  2 Galactus           876     16  54.8 
##  3 Fin Fang Foom      975     18  54.2 
##  4 Longshot           188     36   5.22
##  5 Jack-Jack           71     14   5.07
##  6 Rocket Raccoon     122     25   4.88
##  7 Dash               122     27   4.52
##  8 Howard the Duck     79     18   4.39
##  9 Swarm              196     47   4.17
## 10 Yoda                66     17   3.88
## # ℹ 724 more rows
```
…
13. How many superheros have a combination of agility, stealth, super_strength, stamina?

```r
superhero_powers %>% 
  select(agility, stealth, super_strength, stamina) %>% 
  filter(agility==T) %>% 
  filter(stealth==T) %>% 
  filter(super_strength==T) %>% 
  filter(stamina==T) #There is a total of 40 superheros with agility, stealth, super_strength, and stamina
```

```
## # A tibble: 40 × 4
##    agility stealth super_strength stamina
##    <lgl>   <lgl>   <lgl>          <lgl>  
##  1 TRUE    TRUE    TRUE           TRUE   
##  2 TRUE    TRUE    TRUE           TRUE   
##  3 TRUE    TRUE    TRUE           TRUE   
##  4 TRUE    TRUE    TRUE           TRUE   
##  5 TRUE    TRUE    TRUE           TRUE   
##  6 TRUE    TRUE    TRUE           TRUE   
##  7 TRUE    TRUE    TRUE           TRUE   
##  8 TRUE    TRUE    TRUE           TRUE   
##  9 TRUE    TRUE    TRUE           TRUE   
## 10 TRUE    TRUE    TRUE           TRUE   
## # ℹ 30 more rows
```
…
