…
fisheries_tidy$catch <- as.numeric(fisheries_tidy$catch)
```

3. How many countries are represented in the data? Provide a count and list their names.

```r
fisheries_tidy %>% 
  group_by(country) %>% 
  summarize(n=n()) %>% 
  arrange(desc(n)) #there is 203 countries
```

```
## # A tibble: 203 × 2
##    country                      n
##    <chr>                    <int>
##  1 United States of America 18080
##  2 Spain                    17482
##  3 Japan                    15429
##  4 Portugal                 11570
##  5 Korea, Republic of       10824
##  6 France                   10639
##  7 Taiwan Province of China  9927
##  8 Indonesia                 9274
##  9 Australia                 8183
## 10 Un. Sov. Soc. Rep.        7084
## # ℹ 193 more rows
```
…
5. Based on the asfis_species_number, how many distinct fish species were caught as part of these data?

```r
fish %>% 
  group_by(asfis_species_name, asfis_species_number) %>% 
  summarize(n=n(), .groups= 'keep') %>% 
  arrange(desc(n)) #there was 1,551 species
```

```
## # A tibble: 1,551 × 3
## # Groups:   asfis_species_name, asfis_species_number [1,551]
##    asfis_species_name asfis_species_number     n
##    <chr>              <chr>                <int>
##  1 Osteichthyes       199XXXXXXX010        14289
##  2 Thunnus albacares  1750102610            6866
##  3 Elasmobranchii     199XXXXXXX054         6405
##  4 Katsuwonus pelamis 1750102501            5785
##  5 Thunnus obesus     1750102612            5341
##  6 Xiphias gladius    1750400301            5143
##  7 Thunnus alalunga   1750102605            4441
##  8 Mugilidae          16501XXXXX            4141
##  9 Rajiformes         110XXXXXXX            3706
## 10 Mollusca           399XXXXXXX016         3516
## # ℹ 1,541 more rows
```

6. Which country had the largest overall catch in the year 2000?

```r
fish %>% 
  filter(year==2000) %>% 
  arrange(desc(catch)) #the country that had the highest catch is China
```

```
## # A tibble: 8,793 × 6
##    country  isscaap_taxonomic_gr…¹ asfis_species_name asfis_species_number  year
##    <chr>    <chr>                  <chr>              <chr>                <dbl>
##  1 China    Marine fishes not ide… Osteichthyes       199XXXXXXX010         2000
##  2 Peru     Herrings, sardines, a… Engraulis ringens  1210600208            2000
##  3 Russian… Cods, hakes, haddocks  Theragra chalcogr… 1480401601            2000
##  4 Viet Nam Marine fishes not ide… Osteichthyes       199XXXXXXX010         2000
##  5 Chile    Miscellaneous pelagic… Trachurus murphyi  1702300405            2000
##  6 China    Miscellaneous marine … Mollusca           399XXXXXXX016         2000
##  7 China    Miscellaneous demersa… Trichiurus leptur… 1750600302            2000
##  8 United … Cods, hakes, haddocks  Theragra chalcogr… 1480401601            2000
##  9 China    Miscellaneous marine … Crustacea          299XXXXXXX013         2000
## 10 Philipp… Miscellaneous pelagic… Decapterus spp     17023043XX            2000
## # ℹ 8,783 more rows
## # ℹ abbreviated name: ¹​isscaap_taxonomic_group
## # ℹ 1 more variable: catch <dbl>
```


7. Which country caught the most sardines (_Sardina pilchardus_) between the years 1990-2000?

```r
fish %>% 
  filter(between(year, 1990, 2000)) %>% 
  filter(asfis_species_name=="Sardina pilchardus") %>% 
  arrange(desc(catch)) #the country that had the most sardines is Morocco
```

```
## # A tibble: 336 × 6
##    country  isscaap_taxonomic_gr…¹ asfis_species_name asfis_species_number  year
##    <chr>    <chr>                  <chr>              <chr>                <dbl>
##  1 Morocco  Herrings, sardines, a… Sardina pilchardus 1210506401            1994
##  2 Morocco  Herrings, sardines, a… Sardina pilchardus 1210506401            1996
##  3 Spain    Herrings, sardines, a… Sardina pilchardus 1210506401            1996
##  4 Morocco  Herrings, sardines, a… Sardina pilchardus 1210506401            2000
##  5 Morocco  Herrings, sardines, a… Sardina pilchardus 1210506401            1990
##  6 Morocco  Herrings, sardines, a… Sardina pilchardus 1210506401            1991
##  7 Morocco  Herrings, sardines, a… Sardina pilchardus 1210506401            1998
##  8 Morocco  Herrings, sardines, a… Sardina pilchardus 1210506401            1993
##  9 Russian… Herrings, sardines, a… Sardina pilchardus 1210506401            1992
## 10 Russian… Herrings, sardines, a… Sardina pilchardus 1210506401            1991
## # ℹ 326 more rows
## # ℹ abbreviated name: ¹​isscaap_taxonomic_group
## # ℹ 1 more variable: catch <dbl>
```

8. Which five countries caught the most cephalopods between 2008-2012?

```r
fish %>% 
  filter(between(year, 2008, 2012)) %>% 
  filter(asfis_species_name=="Cephalopoda") %>% 
  arrange(desc(catch)) #the five countries that caught the most cephalopods was India, China, Italy, Spain, and Algeria
```

```
## # A tibble: 80 × 6
##    country isscaap_taxonomic_group asfis_species_name asfis_species_number  year
##    <chr>   <chr>                   <chr>              <chr>                <dbl>
##  1 India   Squids, cuttlefishes, … Cephalopoda        321XXXXXXX            2011
##  2 India   Squids, cuttlefishes, … Cephalopoda        321XXXXXXX            2010
##  3 India   Squids, cuttlefishes, … Cephalopoda        321XXXXXXX            2012
##  4 China   Squids, cuttlefishes, … Cephalopoda        321XXXXXXX            2008
##  5 China   Squids, cuttlefishes, … Cephalopoda        321XXXXXXX            2010
##  6 Italy   Squids, cuttlefishes, … Cephalopoda        321XXXXXXX            2012
##  7 India   Squids, cuttlefishes, … Cephalopoda        321XXXXXXX            2009
##  8 India   Squids, cuttlefishes, … Cephalopoda        321XXXXXXX            2009
##  9 India   Squids, cuttlefishes, … Cephalopoda        321XXXXXXX            2010
## 10 Spain   Squids, cuttlefishes, … Cephalopoda        321XXXXXXX            2008
## # ℹ 70 more rows
## # ℹ 1 more variable: catch <dbl>
```

9. Which species had the highest catch total between 2008-2012? (hint: Osteichthyes is not a species)

```r
fish %>% 
  filter(between(year, 2008, 2012)) %>% 
  filter(!asfis_species_name=="Osteichthyes") %>% 
  arrange(desc(catch)) # the species with the highest catch total was Trichiurus lepturus
```

```
## # A tibble: 49,554 × 6
##    country  isscaap_taxonomic_gr…¹ asfis_species_name asfis_species_number  year
##    <chr>    <chr>                  <chr>              <chr>                <dbl>
##  1 China    Miscellaneous demersa… Trichiurus leptur… 1750600302            2011
##  2 Russian… Cods, hakes, haddocks  Theragra chalcogr… 1480401601            2012
##  3 Peru     Herrings, sardines, a… Engraulis ringens  1210600208            2008
##  4 Norway   Herrings, sardines, a… Clupea harengus    1210500105            2008
##  5 Norway   Herrings, sardines, a… Clupea harengus    1210500105            2009
##  6 Peru     Herrings, sardines, a… Engraulis ringens  1210600208            2012
##  7 China    Miscellaneous demersa… Trichiurus leptur… 1750600302            2010
##  8 Chile    Herrings, sardines, a… Engraulis ringens  1210600208            2008
##  9 China    Miscellaneous demersa… Trichiurus leptur… 1750600302            2012
## 10 Russian… Cods, hakes, haddocks  Theragra chalcogr… 1480401601            2009
## # ℹ 49,544 more rows
## # ℹ abbreviated name: ¹​isscaap_taxonomic_group
## # ℹ 1 more variable: catch <dbl>
```
…
